{
  "allStates": [
    {
      "id": 1,
      "state_name": "Andhra Pradesh",
      "state_code": "AP",
      "country_id": 1
    },
    {
      "id": 2,
      "state_name": "Arunachal Pradesh",
      "state_code": "AR",
      "country_id": 1
    },
    {
      "id": 3,
      "state_name": "Assam",
      "state_code": "AS",
      "country_id": 1
    },
    {
      "id": 4,
      "state_name": "Bihar",
      "state_code": "BR",
      "country_id": 1
    },
    {
      "id": 5,
      "state_name": "Chhattisgarh",
      "state_code": "CG",
      "country_id": 1
    },
    {
      "id": 6,
      "state_name": "Goa",
      "state_code": "GA",
      "country_id": 1
    },
    {
      "id": 7,
      "state_name": "Gujarat",
      "state_code": "GJ",
      "country_id": 1
    },
    {
      "id": 8,
      "state_name": "Haryana",
      "state_code": "HR",
      "country_id": 1
    },
    {
      "id": 9,
      "state_name": "Himachal Pradesh",
      "state_code": "HP",
      "country_id": 1
    },
    {
      "id": 10,
      "state_name": "Jammu and Kashmir",
      "state_code": "JK",
      "country_id": 1
    },
    {
      "id": 11,
      "state_name": "Jharkhand",
      "state_code": "JH",
      "country_id": 1
    },
    {
      "id": 12,
      "state_name": "Karnataka",
      "state_code": "KA",
      "country_id": 1
    },
    {
      "id": 13,
      "state_name": "Kerala",
      "state_code": "KL",
      "country_id": 1
    },
    {
      "id": 14,
      "state_name": "Madhya Pradesh",
      "state_code": "MP",
      "country_id": 1
    },
    {
      "id": 15,
      "state_name": "Maharashtra",
      "state_code": "MH",
      "country_id": 1
    },
    {
      "id": 16,
      "state_name": "Manipur",
      "state_code": "MN",
      "country_id": 1
    },
    {
      "id": 17,
      "state_name": "Meghalaya",
      "state_code": "ML",
      "country_id": 1
    },
    {
      "id": 18,
      "state_name": "Mizoram",
      "state_code": "MZ",
      "country_id": 1
    },
    {
      "id": 19,
      "state_name": "Nagaland",
      "state_code": "NL",
      "country_id": 1
    },
    {
      "id": 20,
      "state_name": "Odisha",
      "state_code": "OD",
      "country_id": 1
    },
    {
      "id": 21,
      "state_name": "Punjab",
      "state_code": "PB",
      "country_id": 1
    },
    {
      "id": 22,
      "state_name": "Rajasthan",
      "state_code": "RJ",
      "country_id": 1
    },
    {
      "id": 23,
      "state_name": "Sikkim",
      "state_code": "SK",
      "country_id": 1
    },
    {
      "id": 24,
      "state_name": "Tamil Nadu",
      "state_code": "TN",
      "country_id": 1
    },
    {
      "id": 25,
      "state_name": "Telangana",
      "state_code": "TS",
      "country_id": 1
    },
    {
      "id": 26,
      "state_name": "Tripura",
      "state_code": "TR",
      "country_id": 1
    },
    {
      "id": 27,
      "state_name": "Uttar Pradesh",
      "state_code": "UP",
      "country_id": 1
    },
    {
      "id": 28,
      "state_name": "Uttarakhand",
      "state_code": "UK",
      "country_id": 1
    },
    {
      "id": 29,
      "state_name": "West Bengal",
      "state_code": "WB",
      "country_id": 1
    },
    {
      "id": 30,
      "state_name": "Andaman and Nicobar Islands",
      "state_code": "AN",
      "country_id": 1
    },
    {
      "id": 31,
      "state_name": "Chandigarh",
      "state_code": "CH",
      "country_id": 1
    },
    {
      "id": 32,
      "state_name": "Dadra and Nagar Haveli",
      "state_code": "DN",
      "country_id": 1
    },
    {
      "id": 33,
      "state_name": "Daman and Diu",
      "state_code": "DD",
      "country_id": 1
    },
    {
      "id": 34,
      "state_name": "Delhi",
      "state_code": "DL",
      "country_id": 1
    },
    {
      "id": 35,
      "state_name": "Lakshadweep",
      "state_code": "LD",
      "country_id": 1
    },
    {
      "id": 36,
      "state_name": "Puducherry",
      "state_code": "PY",
      "country_id": 1
    }
  ]
}